EESchema Schematic File Version 4
EELAYER 30 0
EELAYER END
$Descr A4 11693 8268
encoding utf-8
Sheet 1 1
Title "Box Fan Controller"
Date "2021-04-29"
Rev "R1"
Comp "skelly"
Comment1 ""
Comment2 ""
Comment3 ""
Comment4 ""
$EndDescr
Wire Notes Line
	550  650  2700 650 
Wire Notes Line
	2700 650  2700 3000
Wire Notes Line
	2700 3000 550  3000
Wire Notes Line
	550  3000 550  650 
Text Notes 550  650  0    100  ~ 0
Digital Control
$Comp
L Relay:AZ850-x_ALT K1
U 1 1 60902D25
P 5500 1500
F 0 "K1" V 4733 1500 50  0000 C CNN
F 1 "J104D2C12VDC.20S" V 4824 1500 50  0000 C CNN
F 2 "Relay_THT:Relay_DPDT_Finder_30.22" H 6050 1550 50  0001 C CNN
F 3 "http://www.azettler.com/pdfs/az850.pdf" H 5500 1500 50  0001 C CNN
F 4 "2449-J104D2C12VDC.20S-ND" H 5500 1500 50  0001 C CNN "DistPN"
	1    5500 1500
	0    1    1    0   
$EndComp
$Comp
L Relay:AZ850-x_ALT K3
U 1 1 6090434F
P 5500 2950
F 0 "K3" V 4733 2950 50  0000 C CNN
F 1 "J104D2C12VDC.20S" V 4824 2950 50  0000 C CNN
F 2 "Relay_THT:Relay_DPDT_Finder_30.22" H 6050 3000 50  0001 C CNN
F 3 "http://www.azettler.com/pdfs/az850.pdf" H 5500 2950 50  0001 C CNN
F 4 "2449-J104D2C12VDC.20S-ND" H 5500 2950 50  0001 C CNN "DistPN"
	1    5500 2950
	0    1    1    0   
$EndComp
$Comp
L Relay:AZ850-x_ALT K2
U 1 1 60905450
P 6950 2500
F 0 "K2" V 6183 2500 50  0000 C CNN
F 1 "J104D2C12VDC.20S" V 6274 2500 50  0000 C CNN
F 2 "Relay_THT:Relay_DPDT_Finder_30.22" H 7500 2550 50  0001 C CNN
F 3 "http://www.azettler.com/pdfs/az850.pdf" H 6950 2500 50  0001 C CNN
F 4 "2449-J104D2C12VDC.20S-ND" H 6950 2500 50  0001 C CNN "DistPN"
	1    6950 2500
	0    1    1    0   
$EndComp
$Comp
L Transistor_Array:ULN2003 U4
U 1 1 609097C4
P 3700 1400
F 0 "U4" H 3700 2067 50  0000 C CNN
F 1 "ULN2003" H 3700 1976 50  0000 C CNN
F 2 "Package_SO:SOIC-16_3.9x9.9mm_P1.27mm" H 3750 850 50  0001 L CNN
F 3 "http://www.ti.com/lit/ds/symlink/uln2003a.pdf" H 3800 1200 50  0001 C CNN
	1    3700 1400
	1    0    0    -1  
$EndComp
$Comp
L power:+12V #PWR0101
U 1 1 6090AE30
P 4200 900
F 0 "#PWR0101" H 4200 750 50  0001 C CNN
F 1 "+12V" H 4215 1073 50  0000 C CNN
F 2 "" H 4200 900 50  0001 C CNN
F 3 "" H 4200 900 50  0001 C CNN
	1    4200 900 
	1    0    0    -1  
$EndComp
Wire Wire Line
	4200 900  4200 1000
Wire Wire Line
	4200 1000 4100 1000
$Comp
L power:+12V #PWR0102
U 1 1 609176D2
P 6000 1000
F 0 "#PWR0102" H 6000 850 50  0001 C CNN
F 1 "+12V" H 6015 1173 50  0000 C CNN
F 2 "" H 6000 1000 50  0001 C CNN
F 3 "" H 6000 1000 50  0001 C CNN
	1    6000 1000
	1    0    0    -1  
$EndComp
Wire Wire Line
	6000 1000 6000 1100
Wire Wire Line
	6000 1100 5800 1100
Wire Wire Line
	4100 1400 4650 1400
Text Label 4650 1200 2    50   ~ 0
COIL_HI
Wire Wire Line
	4100 1300 4650 1300
Text Label 4650 1300 2    50   ~ 0
COIL_MED
Wire Wire Line
	4100 1200 4650 1200
Text Label 4650 1400 2    50   ~ 0
COIL_LO
Text Label 2850 1400 0    50   ~ 0
LO_CTL
Text Label 2850 1300 0    50   ~ 0
MED_CTL
Text Label 2850 1200 0    50   ~ 0
HI_CTL
Wire Wire Line
	3300 1400 2850 1400
Wire Wire Line
	3300 1300 2850 1300
Wire Wire Line
	3300 1200 2850 1200
$Comp
L power:GND #PWR0103
U 1 1 6092974B
P 3700 2100
F 0 "#PWR0103" H 3700 1850 50  0001 C CNN
F 1 "GND" H 3705 1927 50  0000 C CNN
F 2 "" H 3700 2100 50  0001 C CNN
F 3 "" H 3700 2100 50  0001 C CNN
	1    3700 2100
	1    0    0    -1  
$EndComp
Wire Wire Line
	3700 2100 3700 2000
$Comp
L power:GND #PWR0104
U 1 1 6092B49B
P 3150 1950
F 0 "#PWR0104" H 3150 1700 50  0001 C CNN
F 1 "GND" H 3155 1777 50  0000 C CNN
F 2 "" H 3150 1950 50  0001 C CNN
F 3 "" H 3150 1950 50  0001 C CNN
	1    3150 1950
	1    0    0    -1  
$EndComp
Wire Wire Line
	3150 1800 3300 1800
Wire Wire Line
	3150 1800 3150 1950
Wire Wire Line
	3150 1800 3150 1700
Wire Wire Line
	3150 1700 3300 1700
Connection ~ 3150 1800
Wire Wire Line
	3150 1700 3150 1600
Wire Wire Line
	3150 1600 3300 1600
Connection ~ 3150 1700
Wire Wire Line
	3150 1600 3150 1500
Wire Wire Line
	3150 1500 3300 1500
Connection ~ 3150 1600
NoConn ~ 4100 1500
NoConn ~ 4100 1600
NoConn ~ 4100 1700
NoConn ~ 4100 1800
Wire Wire Line
	5200 1100 4850 1100
Text Label 4850 1100 0    50   ~ 0
COIL_HI
Wire Wire Line
	6650 2100 6200 2100
Text Label 6200 2100 0    50   ~ 0
COIL_MED
Wire Wire Line
	5200 2550 4850 2550
Text Label 4850 2550 0    50   ~ 0
COIL_LO
$Comp
L power:+12V #PWR0105
U 1 1 6094DC91
P 7450 2000
F 0 "#PWR0105" H 7450 1850 50  0001 C CNN
F 1 "+12V" H 7465 2173 50  0000 C CNN
F 2 "" H 7450 2000 50  0001 C CNN
F 3 "" H 7450 2000 50  0001 C CNN
	1    7450 2000
	1    0    0    -1  
$EndComp
Wire Wire Line
	7450 2000 7450 2100
Wire Wire Line
	7450 2100 7250 2100
$Comp
L power:+12V #PWR0106
U 1 1 60950636
P 6000 2450
F 0 "#PWR0106" H 6000 2300 50  0001 C CNN
F 1 "+12V" H 6015 2623 50  0000 C CNN
F 2 "" H 6000 2450 50  0001 C CNN
F 3 "" H 6000 2450 50  0001 C CNN
	1    6000 2450
	1    0    0    -1  
$EndComp
Wire Wire Line
	6000 2450 6000 2550
Wire Wire Line
	6000 2550 5800 2550
Wire Wire Line
	5200 1900 5000 1900
Wire Wire Line
	5000 1900 5000 1500
Wire Wire Line
	5000 1500 5200 1500
Wire Wire Line
	6650 2900 6450 2900
Wire Wire Line
	6450 2500 6650 2500
Wire Wire Line
	5200 3350 5000 3350
Wire Wire Line
	5000 3350 5000 2950
Wire Wire Line
	5000 2950 5200 2950
NoConn ~ 5800 1800
NoConn ~ 5800 1400
Wire Wire Line
	5800 1600 6000 1600
Wire Wire Line
	6000 2000 5800 2000
Wire Wire Line
	7250 2600 7450 2600
Wire Wire Line
	7450 2600 7450 2800
Wire Wire Line
	7450 3000 7250 3000
Wire Wire Line
	5800 3050 6000 3050
Wire Wire Line
	6000 3050 6000 3250
Wire Wire Line
	6000 3450 5800 3450
NoConn ~ 5800 2850
NoConn ~ 5800 3250
$Comp
L power:LINE #PWR0107
U 1 1 60976DB1
P 5000 1400
F 0 "#PWR0107" H 5000 1250 50  0001 C CNN
F 1 "LINE" H 5015 1573 50  0000 C CNN
F 2 "" H 5000 1400 50  0001 C CNN
F 3 "" H 5000 1400 50  0001 C CNN
	1    5000 1400
	1    0    0    -1  
$EndComp
Wire Wire Line
	5000 1400 5000 1500
Connection ~ 5000 1500
$Comp
L power:LINE #PWR0108
U 1 1 6097A234
P 6450 2400
F 0 "#PWR0108" H 6450 2250 50  0001 C CNN
F 1 "LINE" H 6465 2573 50  0000 C CNN
F 2 "" H 6450 2400 50  0001 C CNN
F 3 "" H 6450 2400 50  0001 C CNN
	1    6450 2400
	1    0    0    -1  
$EndComp
$Comp
L power:LINE #PWR0109
U 1 1 6097C573
P 5000 2850
F 0 "#PWR0109" H 5000 2700 50  0001 C CNN
F 1 "LINE" H 5015 3023 50  0000 C CNN
F 2 "" H 5000 2850 50  0001 C CNN
F 3 "" H 5000 2850 50  0001 C CNN
	1    5000 2850
	1    0    0    -1  
$EndComp
Wire Wire Line
	5000 2850 5000 2950
Connection ~ 5000 2950
Text Label 6400 3250 2    50   ~ 0
WIRE_LO
Wire Wire Line
	6400 3250 6000 3250
Connection ~ 6000 3250
Wire Wire Line
	6000 3250 6000 3450
Text Label 7850 2800 2    50   ~ 0
WIRE_MED
Wire Wire Line
	7850 2800 7450 2800
Connection ~ 7450 2800
Wire Wire Line
	7450 2800 7450 3000
Wire Wire Line
	6000 1600 6000 1800
Text Label 6400 1800 2    50   ~ 0
WIRE_HI
Wire Wire Line
	6400 1800 6000 1800
Wire Wire Line
	6450 2400 6450 2500
Connection ~ 6000 1800
Wire Wire Line
	6000 1800 6000 2000
Connection ~ 6450 2500
Wire Wire Line
	6450 2500 6450 2900
Wire Notes Line
	4700 650  2800 650 
Wire Notes Line
	2800 650  2800 2350
Wire Notes Line
	2800 2350 4700 2350
Wire Notes Line
	4700 2350 4700 650 
Text Notes 2800 650  0    100  ~ 0
Relay Driver
Wire Notes Line
	7900 3600 7900 650 
Wire Notes Line
	7900 650  4800 650 
Wire Notes Line
	4800 650  4800 3600
Wire Notes Line
	4800 3600 7900 3600
Text Notes 4800 650  0    100  ~ 0
Coil Relays
$Comp
L Connector:Screw_Terminal_01x02 J1
U 1 1 609D3C12
P 8100 1100
F 0 "J1" H 8018 775 50  0000 C CNN
F 1 "AC_PWR" H 8018 866 50  0000 C CNN
F 2 "TerminalBlock_Phoenix:TerminalBlock_Phoenix_PT-1,5-2-5.0-H_1x02_P5.00mm_Horizontal" H 8100 1100 50  0001 C CNN
F 3 "~" H 8100 1100 50  0001 C CNN
	1    8100 1100
	-1   0    0    1   
$EndComp
Wire Wire Line
	8500 900  8500 1000
Wire Wire Line
	8300 1000 8500 1000
$Comp
L Regulator_Linear:L7805 U1
U 1 1 609E2367
P 1300 5500
F 0 "U1" H 1300 5742 50  0000 C CNN
F 1 "L7805" H 1300 5651 50  0000 C CNN
F 2 "Package_TO_SOT_SMD:TO-252-3_TabPin2" H 1325 5350 50  0001 L CIN
F 3 "http://www.st.com/content/ccc/resource/technical/document/datasheet/41/4f/b3/b0/12/d4/47/88/CD00000444.pdf/files/CD00000444.pdf/jcr:content/translations/en.CD00000444.pdf" H 1300 5450 50  0001 C CNN
	1    1300 5500
	1    0    0    -1  
$EndComp
$Comp
L power:+12V #PWR0110
U 1 1 609E2B94
P 850 5450
F 0 "#PWR0110" H 850 5300 50  0001 C CNN
F 1 "+12V" H 865 5623 50  0000 C CNN
F 2 "" H 850 5450 50  0001 C CNN
F 3 "" H 850 5450 50  0001 C CNN
	1    850  5450
	1    0    0    -1  
$EndComp
Wire Wire Line
	850  5450 850  5500
Wire Wire Line
	850  5500 950  5500
$Comp
L power:GND #PWR0111
U 1 1 609E6DF3
P 1300 6050
F 0 "#PWR0111" H 1300 5800 50  0001 C CNN
F 1 "GND" H 1305 5877 50  0000 C CNN
F 2 "" H 1300 6050 50  0001 C CNN
F 3 "" H 1300 6050 50  0001 C CNN
	1    1300 6050
	1    0    0    -1  
$EndComp
Wire Wire Line
	1300 6050 1300 5950
$Comp
L power:+5V #PWR0112
U 1 1 609E9092
P 1750 5450
F 0 "#PWR0112" H 1750 5300 50  0001 C CNN
F 1 "+5V" H 1765 5623 50  0000 C CNN
F 2 "" H 1750 5450 50  0001 C CNN
F 3 "" H 1750 5450 50  0001 C CNN
	1    1750 5450
	1    0    0    -1  
$EndComp
Wire Wire Line
	1750 5450 1750 5500
Wire Wire Line
	1750 5500 1650 5500
$Comp
L Device:C C1
U 1 1 609EBCB5
P 950 5750
F 0 "C1" H 836 5704 50  0000 R CNN
F 1 "330nF" H 836 5795 50  0000 R CNN
F 2 "Capacitor_SMD:C_0805_2012Metric_Pad1.18x1.45mm_HandSolder" H 988 5600 50  0001 C CNN
F 3 "~" H 950 5750 50  0001 C CNN
	1    950  5750
	1    0    0    1   
$EndComp
$Comp
L Device:C C2
U 1 1 609EC43D
P 1650 5750
F 0 "C2" H 1765 5796 50  0000 L CNN
F 1 "100nF" H 1765 5705 50  0000 L CNN
F 2 "Capacitor_SMD:C_0805_2012Metric_Pad1.18x1.45mm_HandSolder" H 1688 5600 50  0001 C CNN
F 3 "~" H 1650 5750 50  0001 C CNN
	1    1650 5750
	1    0    0    -1  
$EndComp
Wire Wire Line
	950  5900 950  5950
Wire Wire Line
	950  5950 1300 5950
Connection ~ 1300 5950
Wire Wire Line
	1300 5950 1300 5800
Wire Wire Line
	950  5600 950  5500
Connection ~ 950  5500
Wire Wire Line
	950  5500 1000 5500
Wire Wire Line
	1650 5600 1650 5500
Connection ~ 1650 5500
Wire Wire Line
	1650 5500 1600 5500
Wire Wire Line
	1650 5900 1650 5950
Wire Wire Line
	1650 5950 1300 5950
Wire Notes Line
	550  6300 550  5150
Wire Notes Line
	550  5150 2050 5150
Wire Notes Line
	2050 6300 550  6300
Text Notes 550  5150 0    100  ~ 0
Power Supplies
$Comp
L Connector:Screw_Terminal_01x03 J3
U 1 1 60A212CC
P 8850 1100
F 0 "J3" H 8768 775 50  0000 C CNN
F 1 "FAN_CONN" H 8768 866 50  0000 C CNN
F 2 "TerminalBlock_Phoenix:TerminalBlock_Phoenix_PT-1,5-3-5.0-H_1x03_P5.00mm_Horizontal" H 8850 1100 50  0001 C CNN
F 3 "~" H 8850 1100 50  0001 C CNN
	1    8850 1100
	-1   0    0    1   
$EndComp
$Comp
L power:LINE #PWR0113
U 1 1 60A24CD4
P 8500 900
F 0 "#PWR0113" H 8500 750 50  0001 C CNN
F 1 "LINE" H 8515 1073 50  0000 C CNN
F 2 "" H 8500 900 50  0001 C CNN
F 3 "" H 8500 900 50  0001 C CNN
	1    8500 900 
	1    0    0    -1  
$EndComp
Wire Notes Line
	2050 6300 2050 5150
Text Label 9450 1000 2    50   ~ 0
WIRE_HI
Wire Wire Line
	9450 1000 9050 1000
Text Label 9450 1100 2    50   ~ 0
WIRE_MED
Wire Wire Line
	9450 1100 9050 1100
Text Label 9450 1200 2    50   ~ 0
WIRE_LO
Wire Wire Line
	9450 1200 9050 1200
Wire Wire Line
	8300 1100 8500 1100
Wire Wire Line
	8500 1200 8500 1100
$Comp
L power:NEUT #PWR0118
U 1 1 60A25A2E
P 8500 1200
F 0 "#PWR0118" H 8500 1050 50  0001 C CNN
F 1 "NEUT" H 8515 1373 50  0000 C CNN
F 2 "" H 8500 1200 50  0001 C CNN
F 3 "" H 8500 1200 50  0001 C CNN
	1    8500 1200
	-1   0    0    1   
$EndComp
Wire Notes Line
	8000 2400 8000 650 
Wire Notes Line
	8000 650  9500 650 
Wire Notes Line
	9500 650  9500 2400
Wire Notes Line
	9500 2400 8000 2400
Text Notes 8000 650  0    100  ~ 0
Connectors
$Comp
L Connector:Screw_Terminal_01x04 J2
U 1 1 60AA6FBC
P 8500 1900
F 0 "J2" H 8418 1475 50  0000 C CNN
F 1 "RF_MOD" H 8418 1566 50  0000 C CNN
F 2 "TerminalBlock_Phoenix:TerminalBlock_Phoenix_PT-1,5-4-5.0-H_1x04_P5.00mm_Horizontal" H 8500 1900 50  0001 C CNN
F 3 "~" H 8500 1900 50  0001 C CNN
	1    8500 1900
	-1   0    0    1   
$EndComp
Wire Wire Line
	8700 2000 8900 2000
Wire Wire Line
	8900 2100 8900 2000
$Comp
L power:GND #PWR0119
U 1 1 60AAA543
P 8900 2100
F 0 "#PWR0119" H 8900 1850 50  0001 C CNN
F 1 "GND" H 8905 1927 50  0000 C CNN
F 2 "" H 8900 2100 50  0001 C CNN
F 3 "" H 8900 2100 50  0001 C CNN
	1    8900 2100
	1    0    0    -1  
$EndComp
Wire Wire Line
	8700 1800 9000 1800
$Comp
L power:+5V #PWR0120
U 1 1 60AAFC66
P 8850 1600
F 0 "#PWR0120" H 8850 1450 50  0001 C CNN
F 1 "+5V" H 8865 1773 50  0000 C CNN
F 2 "" H 8850 1600 50  0001 C CNN
F 3 "" H 8850 1600 50  0001 C CNN
	1    8850 1600
	1    0    0    -1  
$EndComp
Wire Wire Line
	9000 1700 9000 1800
$Comp
L power:+12V #PWR0121
U 1 1 60AA9F8F
P 9000 1700
F 0 "#PWR0121" H 9000 1550 50  0001 C CNN
F 1 "+12V" H 9015 1873 50  0000 C CNN
F 2 "" H 9000 1700 50  0001 C CNN
F 3 "" H 9000 1700 50  0001 C CNN
	1    9000 1700
	1    0    0    -1  
$EndComp
Wire Wire Line
	8700 1700 8850 1700
Wire Wire Line
	8850 1600 8850 1700
$Comp
L Mechanical:MountingHole H1
U 1 1 60B33E78
P 2950 2650
F 0 "H1" H 3050 2696 50  0000 L CNN
F 1 "#2x3/16\"" H 3050 2605 50  0000 L CNN
F 2 "MountingHole:MountingHole_3.2mm_M3" H 2950 2650 50  0001 C CNN
F 3 "~" H 2950 2650 50  0001 C CNN
	1    2950 2650
	1    0    0    -1  
$EndComp
$Comp
L Mechanical:MountingHole H3
U 1 1 60B34DBF
P 3600 2650
F 0 "H3" H 3700 2696 50  0000 L CNN
F 1 "#2x3/16\"" H 3700 2605 50  0000 L CNN
F 2 "MountingHole:MountingHole_3.2mm_M3" H 3600 2650 50  0001 C CNN
F 3 "~" H 3600 2650 50  0001 C CNN
	1    3600 2650
	1    0    0    -1  
$EndComp
$Comp
L Mechanical:MountingHole H4
U 1 1 60B350AC
P 3600 2900
F 0 "H4" H 3700 2946 50  0000 L CNN
F 1 "#2x3/16\"" H 3700 2855 50  0000 L CNN
F 2 "MountingHole:MountingHole_3.2mm_M3" H 3600 2900 50  0001 C CNN
F 3 "~" H 3600 2900 50  0001 C CNN
	1    3600 2900
	1    0    0    -1  
$EndComp
$Comp
L Mechanical:MountingHole H2
U 1 1 60B35360
P 2950 2900
F 0 "H2" H 3050 2946 50  0000 L CNN
F 1 "#2x3/16\"" H 3050 2855 50  0000 L CNN
F 2 "MountingHole:MountingHole_3.2mm_M3" H 2950 2900 50  0001 C CNN
F 3 "~" H 2950 2900 50  0001 C CNN
	1    2950 2900
	1    0    0    -1  
$EndComp
Wire Notes Line
	2800 2500 4150 2500
Wire Notes Line
	4150 2500 4150 3050
Wire Notes Line
	4150 3050 2800 3050
Wire Notes Line
	2800 3050 2800 2500
Text Notes 2800 2500 0    100  ~ 0
Mounting Holes
Text Label 8050 2650 0    50   ~ 0
LO_CTL
Text Label 8050 2750 0    50   ~ 0
MED_CTL
Text Label 8050 2850 0    50   ~ 0
HI_CTL
$Comp
L Device:LED D2
U 1 1 60B52248
P 9050 3150
F 0 "D2" V 9089 3032 50  0000 R CNN
F 1 "LED" V 8998 3032 50  0000 R CNN
F 2 "LED_SMD:LED_0805_2012Metric_Pad1.15x1.40mm_HandSolder" H 9050 3150 50  0001 C CNN
F 3 "~" H 9050 3150 50  0001 C CNN
	1    9050 3150
	0    -1   -1   0   
$EndComp
$Comp
L Device:LED D1
U 1 1 60B52EF6
P 8700 3150
F 0 "D1" V 8739 3032 50  0000 R CNN
F 1 "LED" V 8648 3032 50  0000 R CNN
F 2 "LED_SMD:LED_0805_2012Metric_Pad1.15x1.40mm_HandSolder" H 8700 3150 50  0001 C CNN
F 3 "~" H 8700 3150 50  0001 C CNN
	1    8700 3150
	0    -1   -1   0   
$EndComp
$Comp
L Device:LED D3
U 1 1 60B5B4D7
P 9400 3150
F 0 "D3" V 9439 3032 50  0000 R CNN
F 1 "LED" V 9348 3032 50  0000 R CNN
F 2 "LED_SMD:LED_0805_2012Metric_Pad1.15x1.40mm_HandSolder" H 9400 3150 50  0001 C CNN
F 3 "~" H 9400 3150 50  0001 C CNN
	1    9400 3150
	0    -1   -1   0   
$EndComp
$Comp
L Device:R R1
U 1 1 60B6038A
P 8700 3550
F 0 "R1" H 8770 3596 50  0000 L CNN
F 1 "470" H 8770 3505 50  0000 L CNN
F 2 "Resistor_SMD:R_0805_2012Metric_Pad1.20x1.40mm_HandSolder" V 8630 3550 50  0001 C CNN
F 3 "~" H 8700 3550 50  0001 C CNN
	1    8700 3550
	1    0    0    -1  
$EndComp
$Comp
L Device:R R2
U 1 1 60B60C57
P 9050 3550
F 0 "R2" H 9120 3596 50  0000 L CNN
F 1 "470" H 9120 3505 50  0000 L CNN
F 2 "Resistor_SMD:R_0805_2012Metric_Pad1.20x1.40mm_HandSolder" V 8980 3550 50  0001 C CNN
F 3 "~" H 9050 3550 50  0001 C CNN
	1    9050 3550
	1    0    0    -1  
$EndComp
$Comp
L Device:R R3
U 1 1 60B61047
P 9400 3550
F 0 "R3" H 9470 3596 50  0000 L CNN
F 1 "470" H 9470 3505 50  0000 L CNN
F 2 "Resistor_SMD:R_0805_2012Metric_Pad1.20x1.40mm_HandSolder" V 9330 3550 50  0001 C CNN
F 3 "~" H 9400 3550 50  0001 C CNN
	1    9400 3550
	1    0    0    -1  
$EndComp
Wire Wire Line
	9400 3400 9400 3300
Wire Wire Line
	9050 3300 9050 3400
Wire Wire Line
	8700 3300 8700 3400
Wire Wire Line
	8700 2850 8700 3000
Wire Wire Line
	8050 2850 8700 2850
Wire Wire Line
	9050 2750 9050 3000
Wire Wire Line
	8050 2750 9050 2750
Wire Wire Line
	9400 2650 9400 3000
Wire Wire Line
	8050 2650 9400 2650
$Comp
L power:GND #PWR0122
U 1 1 60B7866B
P 8700 3950
F 0 "#PWR0122" H 8700 3700 50  0001 C CNN
F 1 "GND" H 8705 3777 50  0000 C CNN
F 2 "" H 8700 3950 50  0001 C CNN
F 3 "" H 8700 3950 50  0001 C CNN
	1    8700 3950
	1    0    0    -1  
$EndComp
Wire Wire Line
	8700 3950 8700 3800
Wire Wire Line
	8700 3700 8700 3800
Wire Wire Line
	8700 3800 9050 3800
Connection ~ 9050 3800
Wire Wire Line
	9050 3800 9050 3700
Wire Wire Line
	9400 3700 9400 3800
Wire Wire Line
	9400 3800 9050 3800
Wire Notes Line
	8000 2550 8000 4200
Wire Notes Line
	8000 4200 10050 4200
Wire Notes Line
	10050 4200 10050 2550
Wire Notes Line
	10050 2550 8000 2550
$Comp
L power:+5V #PWR0123
U 1 1 60B8A0E3
P 9750 2800
F 0 "#PWR0123" H 9750 2650 50  0001 C CNN
F 1 "+5V" H 9765 2973 50  0000 C CNN
F 2 "" H 9750 2800 50  0001 C CNN
F 3 "" H 9750 2800 50  0001 C CNN
	1    9750 2800
	1    0    0    -1  
$EndComp
$Comp
L Device:LED D4
U 1 1 60B935FC
P 9750 3150
F 0 "D4" V 9789 3032 50  0000 R CNN
F 1 "LED" V 9698 3032 50  0000 R CNN
F 2 "LED_SMD:LED_0805_2012Metric_Pad1.15x1.40mm_HandSolder" H 9750 3150 50  0001 C CNN
F 3 "~" H 9750 3150 50  0001 C CNN
	1    9750 3150
	0    -1   -1   0   
$EndComp
$Comp
L Device:R R4
U 1 1 60B93B19
P 9750 3550
F 0 "R4" H 9820 3596 50  0000 L CNN
F 1 "470" H 9820 3505 50  0000 L CNN
F 2 "Resistor_SMD:R_0805_2012Metric_Pad1.20x1.40mm_HandSolder" V 9680 3550 50  0001 C CNN
F 3 "~" H 9750 3550 50  0001 C CNN
	1    9750 3550
	1    0    0    -1  
$EndComp
Wire Wire Line
	9750 2800 9750 3000
Wire Wire Line
	9750 3700 9750 3800
Wire Wire Line
	9750 3800 9400 3800
Connection ~ 9400 3800
Connection ~ 8700 3800
Wire Wire Line
	9750 3300 9750 3400
Text Notes 8000 2550 0    100  ~ 0
Indicator LEDs
$Comp
L 74xx:74HC164 U2
U 1 1 60BC9953
P 1350 2000
F 0 "U2" H 1600 2550 50  0000 C CNN
F 1 "74HC164" H 1600 2450 50  0000 C CNN
F 2 "Package_SO:SOIC-14_3.9x8.7mm_P1.27mm" H 2250 1700 50  0001 C CNN
F 3 "https://assets.nexperia.com/documents/data-sheet/74HC_HCT164.pdf" H 2250 1700 50  0001 C CNN
	1    1350 2000
	1    0    0    -1  
$EndComp
Wire Wire Line
	2000 1500 2000 1700
Wire Wire Line
	2000 1700 1750 1700
Wire Wire Line
	1750 1800 2100 1800
Wire Wire Line
	2100 1800 2100 1500
Wire Wire Line
	2200 1500 2200 1900
Wire Wire Line
	2200 1900 1750 1900
Wire Wire Line
	2200 1900 2650 1900
Connection ~ 2200 1900
Wire Wire Line
	2100 1800 2650 1800
Connection ~ 2100 1800
Wire Wire Line
	2000 1700 2650 1700
Connection ~ 2000 1700
Text Label 2650 1700 2    50   ~ 0
HI_CTL
Text Label 2650 1800 2    50   ~ 0
MED_CTL
Text Label 2650 1900 2    50   ~ 0
LO_CTL
Wire Wire Line
	2100 900  2100 800 
Wire Wire Line
	2100 800  800  800 
Wire Wire Line
	800  800  800  2000
Wire Wire Line
	800  2000 950  2000
Wire Wire Line
	800  2000 800  2100
Wire Wire Line
	800  2100 950  2100
Connection ~ 800  2000
$Comp
L power:+5V #PWR0124
U 1 1 60BDDC02
P 650 1700
F 0 "#PWR0124" H 650 1550 50  0001 C CNN
F 1 "+5V" H 665 1873 50  0000 C CNN
F 2 "" H 650 1700 50  0001 C CNN
F 3 "" H 650 1700 50  0001 C CNN
	1    650  1700
	1    0    0    -1  
$EndComp
Wire Wire Line
	650  1700 650  1800
Wire Wire Line
	650  1800 950  1800
Text Label 600  2300 0    50   ~ 0
PULSE
Wire Wire Line
	950  2300 900  2300
NoConn ~ 1750 2000
NoConn ~ 1750 2100
NoConn ~ 1750 2200
NoConn ~ 1750 2300
NoConn ~ 1750 2400
$Comp
L power:+5V #PWR0125
U 1 1 60C069A4
P 1350 1350
F 0 "#PWR0125" H 1350 1200 50  0001 C CNN
F 1 "+5V" H 1365 1523 50  0000 C CNN
F 2 "" H 1350 1350 50  0001 C CNN
F 3 "" H 1350 1350 50  0001 C CNN
	1    1350 1350
	1    0    0    -1  
$EndComp
Wire Wire Line
	1350 1350 1350 1500
$Comp
L power:GND #PWR0126
U 1 1 60C0CFA7
P 1350 2750
F 0 "#PWR0126" H 1350 2500 50  0001 C CNN
F 1 "GND" H 1355 2577 50  0000 C CNN
F 2 "" H 1350 2750 50  0001 C CNN
F 3 "" H 1350 2750 50  0001 C CNN
	1    1350 2750
	1    0    0    -1  
$EndComp
Wire Wire Line
	1350 2750 1350 2600
Text Notes 4800 3750 0    100  ~ 0
Decoupling
NoConn ~ 7250 2400
NoConn ~ 7250 2800
$Comp
L Device:C C4
U 1 1 60C58FBB
P 5600 4450
F 0 "C4" H 5715 4496 50  0000 L CNN
F 1 "100n" H 5715 4405 50  0000 L CNN
F 2 "Capacitor_SMD:C_0805_2012Metric_Pad1.18x1.45mm_HandSolder" H 5638 4300 50  0001 C CNN
F 3 "~" H 5600 4450 50  0001 C CNN
	1    5600 4450
	-1   0    0    1   
$EndComp
$Comp
L power:+5V #PWR0129
U 1 1 609BFBFF
P 5550 4100
F 0 "#PWR0129" H 5550 3950 50  0001 C CNN
F 1 "+5V" H 5565 4273 50  0000 C CNN
F 2 "" H 5550 4100 50  0001 C CNN
F 3 "" H 5550 4100 50  0001 C CNN
	1    5550 4100
	1    0    0    -1  
$EndComp
Wire Wire Line
	5550 4100 5550 4200
Wire Wire Line
	5550 4200 5600 4200
$Comp
L power:GND #PWR0130
U 1 1 609C5EFF
P 6400 4350
F 0 "#PWR0130" H 6400 4100 50  0001 C CNN
F 1 "GND" H 6405 4177 50  0000 C CNN
F 2 "" H 6400 4350 50  0001 C CNN
F 3 "" H 6400 4350 50  0001 C CNN
	1    6400 4350
	1    0    0    -1  
$EndComp
Wire Wire Line
	6400 4350 6400 4200
Wire Wire Line
	6400 4200 6250 4200
Wire Wire Line
	5600 4200 5600 4300
Connection ~ 5600 4200
Wire Wire Line
	5600 4200 5650 4200
$Comp
L power:GND #PWR0131
U 1 1 609EBB9F
P 5600 4700
F 0 "#PWR0131" H 5600 4450 50  0001 C CNN
F 1 "GND" H 5605 4527 50  0000 C CNN
F 2 "" H 5600 4700 50  0001 C CNN
F 3 "" H 5600 4700 50  0001 C CNN
	1    5600 4700
	1    0    0    -1  
$EndComp
Wire Wire Line
	5600 4700 5600 4600
Wire Wire Line
	5150 4600 5150 4700
Wire Wire Line
	5150 4100 5150 4300
$Comp
L power:GND #PWR0128
U 1 1 60C5E5F2
P 5150 4700
F 0 "#PWR0128" H 5150 4450 50  0001 C CNN
F 1 "GND" H 5155 4527 50  0000 C CNN
F 2 "" H 5150 4700 50  0001 C CNN
F 3 "" H 5150 4700 50  0001 C CNN
	1    5150 4700
	1    0    0    -1  
$EndComp
$Comp
L power:+5V #PWR0127
U 1 1 60C5E00A
P 5150 4100
F 0 "#PWR0127" H 5150 3950 50  0001 C CNN
F 1 "+5V" H 5165 4273 50  0000 C CNN
F 2 "" H 5150 4100 50  0001 C CNN
F 3 "" H 5150 4100 50  0001 C CNN
	1    5150 4100
	1    0    0    -1  
$EndComp
$Comp
L Device:C C3
U 1 1 60C5846B
P 5150 4450
F 0 "C3" H 5265 4496 50  0000 L CNN
F 1 "100n" H 5265 4405 50  0000 L CNN
F 2 "Capacitor_SMD:C_0805_2012Metric_Pad1.18x1.45mm_HandSolder" H 5188 4300 50  0001 C CNN
F 3 "~" H 5150 4450 50  0001 C CNN
	1    5150 4450
	-1   0    0    1   
$EndComp
Wire Notes Line
	4800 3750 6900 3750
Wire Notes Line
	4800 3750 4800 6050
$Comp
L Device:R R5
U 1 1 60AF3A19
P 900 2500
F 0 "R5" H 830 2454 50  0000 R CNN
F 1 "10k" H 830 2545 50  0000 R CNN
F 2 "Resistor_SMD:R_0805_2012Metric_Pad1.20x1.40mm_HandSolder" V 830 2500 50  0001 C CNN
F 3 "~" H 900 2500 50  0001 C CNN
	1    900  2500
	1    0    0    1   
$EndComp
Wire Wire Line
	900  2350 900  2300
Connection ~ 900  2300
Wire Wire Line
	900  2300 600  2300
$Comp
L power:GND #PWR01
U 1 1 60AF9DB0
P 900 2700
F 0 "#PWR01" H 900 2450 50  0001 C CNN
F 1 "GND" H 905 2527 50  0000 C CNN
F 2 "" H 900 2700 50  0001 C CNN
F 3 "" H 900 2700 50  0001 C CNN
	1    900  2700
	1    0    0    -1  
$EndComp
Wire Wire Line
	900  2700 900  2650
Wire Wire Line
	8700 1900 9350 1900
Text Label 9350 1900 2    50   ~ 0
PULSE_CONTACT
$Comp
L Diode:1N4148W D5
U 1 1 60BE59AE
P 1650 3950
F 0 "D5" H 1650 3733 50  0000 C CNN
F 1 "1N4148" H 1650 3824 50  0000 C CNN
F 2 "Diode_SMD:D_SOD-123" H 1650 3775 50  0001 C CNN
F 3 "https://www.vishay.com/docs/85748/1n4148w.pdf" H 1650 3950 50  0001 C CNN
	1    1650 3950
	-1   0    0    1   
$EndComp
$Comp
L Device:R R7
U 1 1 60BE698F
P 1650 4150
F 0 "R7" V 1550 4150 50  0000 C CNN
F 1 "22k" V 1450 4150 50  0000 C CNN
F 2 "Resistor_SMD:R_0805_2012Metric_Pad1.20x1.40mm_HandSolder" V 1580 4150 50  0001 C CNN
F 3 "~" H 1650 4150 50  0001 C CNN
	1    1650 4150
	0    -1   -1   0   
$EndComp
$Comp
L Device:R R6
U 1 1 60BF5AF3
P 1350 3650
F 0 "R6" H 1200 3700 50  0000 C CNN
F 1 "51k" H 1200 3600 50  0000 C CNN
F 2 "Resistor_SMD:R_0805_2012Metric_Pad1.20x1.40mm_HandSolder" V 1280 3650 50  0001 C CNN
F 3 "~" H 1350 3650 50  0001 C CNN
	1    1350 3650
	1    0    0    -1  
$EndComp
Wire Wire Line
	1350 3800 1350 3950
Wire Wire Line
	1350 3950 1500 3950
Wire Wire Line
	1350 3950 1350 4150
Wire Wire Line
	1350 4150 1500 4150
Connection ~ 1350 3950
Wire Wire Line
	1350 4150 600  4150
Connection ~ 1350 4150
Text Label 600  4150 0    50   ~ 0
PULSE_CONTACT
$Comp
L Device:C C5
U 1 1 60C17102
P 2100 4450
F 0 "C5" H 2215 4496 50  0000 L CNN
F 1 "1uF" H 2215 4405 50  0000 L CNN
F 2 "Capacitor_SMD:C_0805_2012Metric_Pad1.18x1.45mm_HandSolder" H 2138 4300 50  0001 C CNN
F 3 "~" H 2100 4450 50  0001 C CNN
	1    2100 4450
	1    0    0    -1  
$EndComp
Wire Wire Line
	1800 4150 1900 4150
Wire Wire Line
	2100 4300 2100 4150
Connection ~ 2100 4150
Wire Wire Line
	2100 4150 2200 4150
Wire Wire Line
	1800 3950 1900 3950
Wire Wire Line
	1900 3950 1900 4150
Connection ~ 1900 4150
Wire Wire Line
	1900 4150 2100 4150
$Comp
L power:GND #PWR03
U 1 1 60C30B0E
P 2100 4750
F 0 "#PWR03" H 2100 4500 50  0001 C CNN
F 1 "GND" H 2105 4577 50  0000 C CNN
F 2 "" H 2100 4750 50  0001 C CNN
F 3 "" H 2100 4750 50  0001 C CNN
	1    2100 4750
	1    0    0    -1  
$EndComp
Wire Wire Line
	2100 4750 2100 4600
Text Label 3050 4150 2    50   ~ 0
PULSE
Wire Wire Line
	3050 4150 2750 4150
$Comp
L power:+5V #PWR02
U 1 1 60C4716F
P 1350 3400
F 0 "#PWR02" H 1350 3250 50  0001 C CNN
F 1 "+5V" H 1365 3573 50  0000 C CNN
F 2 "" H 1350 3400 50  0001 C CNN
F 3 "" H 1350 3400 50  0001 C CNN
	1    1350 3400
	1    0    0    -1  
$EndComp
Wire Wire Line
	1350 3400 1350 3500
Wire Notes Line
	550  3150 3150 3150
Wire Notes Line
	3150 3150 3150 5000
Wire Notes Line
	3150 5000 550  5000
Wire Notes Line
	550  3150 550  5000
Text Notes 550  3150 0    100  ~ 0
Relay Contact Debouncing
$Comp
L Device:C C6
U 1 1 60CBA906
P 5150 5450
F 0 "C6" H 5265 5496 50  0000 L CNN
F 1 "100n" H 5265 5405 50  0000 L CNN
F 2 "Capacitor_SMD:C_0805_2012Metric_Pad1.18x1.45mm_HandSolder" H 5188 5300 50  0001 C CNN
F 3 "~" H 5150 5450 50  0001 C CNN
	1    5150 5450
	-1   0    0    1   
$EndComp
$Comp
L power:+5V #PWR04
U 1 1 60CBA90C
P 5150 5200
F 0 "#PWR04" H 5150 5050 50  0001 C CNN
F 1 "+5V" H 5165 5373 50  0000 C CNN
F 2 "" H 5150 5200 50  0001 C CNN
F 3 "" H 5150 5200 50  0001 C CNN
	1    5150 5200
	1    0    0    -1  
$EndComp
$Comp
L power:GND #PWR05
U 1 1 60CBA917
P 5150 5700
F 0 "#PWR05" H 5150 5450 50  0001 C CNN
F 1 "GND" H 5155 5527 50  0000 C CNN
F 2 "" H 5150 5700 50  0001 C CNN
F 3 "" H 5150 5700 50  0001 C CNN
	1    5150 5700
	1    0    0    -1  
$EndComp
Wire Wire Line
	5150 5700 5150 5600
Wire Notes Line
	6900 6050 4800 6050
Wire Notes Line
	6900 3750 6900 6050
$Comp
L Custom_Logic:74LVC1G27 U3
U 1 1 60D15028
P 2100 1200
F 0 "U3" V 2146 1045 50  0000 R CNN
F 1 "74LVC1G27" V 2055 1045 50  0000 R CNN
F 2 "Package_TO_SOT_SMD:SOT-363_SC-70-6_Handsoldering" H 2100 1200 50  0001 C CNN
F 3 "http://www.ti.com/lit/sg/scyt129e/scyt129e.pdf" H 2100 1200 50  0001 C CNN
	1    2100 1200
	0    -1   -1   0   
$EndComp
$Comp
L Custom_Logic:74LVC1G27 U3
U 2 1 60D38A4B
P 5950 4200
F 0 "U3" H 5950 4467 50  0000 C CNN
F 1 "74LVC1G27" H 5950 4376 50  0000 C CNN
F 2 "Package_TO_SOT_SMD:SOT-363_SC-70-6_Handsoldering" H 5950 4200 50  0001 C CNN
F 3 "http://www.ti.com/lit/sg/scyt129e/scyt129e.pdf" H 5950 4200 50  0001 C CNN
	2    5950 4200
	1    0    0    -1  
$EndComp
$Comp
L 74xGxx:74AHC1G14 U6
U 1 1 60D5AF50
P 2500 4150
F 0 "U6" H 2350 4400 50  0000 C CNN
F 1 "74AHC1G14" H 2200 4300 50  0000 C CNN
F 2 "Package_TO_SOT_SMD:SOT-353_SC-70-5_Handsoldering" H 2500 4150 50  0001 C CNN
F 3 "https://www.ti.com/lit/ds/symlink/sn74lvc1g14.pdf" H 2500 4150 50  0001 C CNN
	1    2500 4150
	1    0    0    -1  
$EndComp
$Comp
L power:+5V #PWR07
U 1 1 60D642C0
P 2500 3950
F 0 "#PWR07" H 2500 3800 50  0001 C CNN
F 1 "+5V" H 2515 4123 50  0000 C CNN
F 2 "" H 2500 3950 50  0001 C CNN
F 3 "" H 2500 3950 50  0001 C CNN
	1    2500 3950
	1    0    0    -1  
$EndComp
Wire Wire Line
	2500 3950 2500 4050
$Comp
L power:GND #PWR08
U 1 1 60D74C27
P 2500 4350
F 0 "#PWR08" H 2500 4100 50  0001 C CNN
F 1 "GND" H 2505 4177 50  0000 C CNN
F 2 "" H 2500 4350 50  0001 C CNN
F 3 "" H 2500 4350 50  0001 C CNN
	1    2500 4350
	1    0    0    -1  
$EndComp
Wire Wire Line
	2500 4350 2500 4250
Wire Wire Line
	5150 5200 5150 5300
$EndSCHEMATC
